{
    "current_page": 1,
    "total_pages": 1000,
    "total_items": 657886,
    "photos": [
        {
            "store_license": false,
            "positive_votes_count": 210,
            "license_requests_enabled": true,
            "id": 257248673,
            "images": [
                {
                    "size": 4,
                    "format": "jpeg",
                    "https_url": "https://drscdn.500px.org/photo/257248673/m%3D900_k%3D1_a%3D1/v2?client_application_id=48421&webp=true&sig=f0e834ffb490d69bf95f0f0dfcf79b84d90527bcce5d197bdee45d6d2e6d82c0",
                    "url": "https://drscdn.500px.org/photo/257248673/m%3D900_k%3D1_a%3D1/v2?client_application_id=48421&webp=true&sig=f0e834ffb490d69bf95f0f0dfcf79b84d90527bcce5d197bdee45d6d2e6d82c0"
                }
            ],
            "description": null,
            "exclude_gads": false,
            "name": "Caracal headshot",
            "highest_rating_date": "2018-05-10T01:24:42-04:00",
            "created_at": "2018-05-09T18:14:05-04:00",
            "store_download": false,
            "privacy": false,
            "favorites_count": 0,
            "category": 11,
            "width": 3731,
            "highest_rating": 98.4,
            "request_to_buy_enabled": false,
            "editors_choice": false,
            "image_format": "jpeg",
            "feature": "popular",
            "aperture": "5",
            "editored_by": {},
            "user": {
                "country": "Switzerland",
                "avatars": {
                    "default": {
                        "https": "https://drscdn.500px.org/user_avatar/3539556/q%3D85_w%3D300_h%3D300/v2?webp=true&v=3&sig=48addd8bce0ae25124f0fc0c112905b70ac137126e86100a5d9972d674b6d711"
                    },
                    "tiny": {
                        "https": "https://drscdn.500px.org/user_avatar/3539556/q%3D85_w%3D30_h%3D30/v2?webp=true&v=3&sig=8f8cd4c5bdc5f7873d18f437ba62e4c01460d0f62be358c9269d584f5ad3c388"
                    },
                    "large": {
                        "https": "https://drscdn.500px.org/user_avatar/3539556/q%3D85_w%3D100_h%3D100/v2?webp=true&v=3&sig=6b0700859c62321ae11fa441867df8a665e405a8e28561cbfe0cea493a2b70be"
                    },
                    "small": {
                        "https": "https://drscdn.500px.org/user_avatar/3539556/q%3D85_w%3D50_h%3D50/v2?webp=true&v=3&sig=7f89e2fb80e008eaf12690504950b24b56ff9c7cc282570e0841d029481dc035"
                    }
                },
                "lastname": "Wimmerlin",
                "cover_url": "https://drscdn.500px.org/user_cover/3539556/q%3D65_m%3D2048/v2?webp=true&v=7&sig=72835788e13283eea8353ccebfb26f2a2abedc7c6f6e9b32e529588c5f4dbc9e",
                "userpic_https_url": "https://drscdn.500px.org/user_avatar/3539556/q%3D85_w%3D300_h%3D300/v2?webp=true&v=3&sig=48addd8bce0ae25124f0fc0c112905b70ac137126e86100a5d9972d674b6d711",
                "store_on": true,
                "userpic_url": "https://drscdn.500px.org/user_avatar/3539556/q%3D85_w%3D300_h%3D300/v2?webp=true&v=3&sig=48addd8bce0ae25124f0fc0c112905b70ac137126e86100a5d9972d674b6d711",
                "usertype": 10,
                "fullname": "Julia Wimmerlin",
                "city": "Geneva",
                "upgrade_status": 3,
                "id": 3539556,
                "username": "jtrof",
                "firstname": "Julia",
                "affection": 210760
            },
            "editors_choice_date": null,
            "voted": false,
            "taken_at": "2017-04-22T07:05:45-04:00",
            "hi_res_uploaded": 0,
            "rating": 98.4,
            "critiques_callout_dismissed": false,
            "purchased": false,
            "store_print": false,
            "for_sale_date": null,
            "votes_count": 210,
            "lens": "EF100-400mm f/4.5-5.6L IS II USM",
            "camera": "Canon EOS 5D Mark IV",
            "comments_count": 6,
            "watermark": false,
            "shutter_speed": "1/400",
            "feature_date": "2018-05-09T22:18:59+00:00",
            "focal_length": "170",
            "longitude": null,
            "licensing_status": 2,
            "height": 5596,
            "licensing_suggested": false,
            "store_width": 3731,
            "converted": false,
            "for_sale": false,
            "licensing_requested": false,
            "image_url": [
                "https://drscdn.500px.org/photo/257248673/m%3D900_k%3D1_a%3D1/v2?client_application_id=48421&webp=true&sig=f0e834ffb490d69bf95f0f0dfcf79b84d90527bcce5d197bdee45d6d2e6d82c0"
            ],
            "sales_count": 0,
            "collections_count": 12,
            "nsfw": false,
            "user_id": 3539556,
            "store_height": 5596,
            "latitude": null,
            "comments": [],
            "times_viewed": 993,
            "crop_version": 0,
            "url": "/photo/257248673/caracal-headshot-by-julia-wimmerlin",
            "liked": false,
            "profile": true,
            "iso": "500",
            "for_critique": false,
            "disliked": false,
            "location": null,
            "is_free_photo": false,
            "converted_bits": 0,
            "license_type": 0,
            "status": 1
        },
        {
            "store_license": false,
            "positive_votes_count": 210,
            "license_requests_enabled": true,
            "id": 257181335,
            "images": [
                {
                    "size": 4,
                    "format": "jpeg",
                    "https_url": "https://drscdn.500px.org/photo/257181335/m%3D900_k%3D1_a%3D1/v2?client_application_id=48421&webp=true&sig=502a626de1ce20989616221734622244980d48cfedb7403ff7a91fed78e1f45e",
                    "url": "https://drscdn.500px.org/photo/257181335/m%3D900_k%3D1_a%3D1/v2?client_application_id=48421&webp=true&sig=502a626de1ce20989616221734622244980d48cfedb7403ff7a91fed78e1f45e"
                }
            ],
            "description": "What can you do when it's so damn hot.",
            "exclude_gads": false,
            "name": "Just Lounging",
            "highest_rating_date": "2018-05-09T23:30:22-04:00",
            "created_at": "2018-05-09T08:16:17-04:00",
            "store_download": false,
            "privacy": false,
            "favorites_count": 0,
            "category": 11,
            "width": 4685,
            "highest_rating": 98.4,
            "request_to_buy_enabled": true,
            "editors_choice": false,
            "image_format": "jpeg",
            "feature": "popular",
            "aperture": null,
            "editored_by": {},
            "user": {
                "country": "The Netherlands",
                "avatars": {
                    "default": {
                        "https": "https://drscdn.500px.org/user_avatar/12796607/q%3D85_w%3D300_h%3D300/v2?webp=true&v=9&sig=3d8fba8ad33df23d038084af07e381e0711b0cf6cbbc6480af385e231104910e"
                    },
                    "tiny": {
                        "https": "https://drscdn.500px.org/user_avatar/12796607/q%3D85_w%3D30_h%3D30/v2?webp=true&v=9&sig=c2661e2a38ba050c1beab044ce4c43929377f33bf2f4e8ddb985f753de8277f9"
                    },
                    "large": {
                        "https": "https://drscdn.500px.org/user_avatar/12796607/q%3D85_w%3D100_h%3D100/v2?webp=true&v=9&sig=6f554ebaab65681781c1a1acd8a28d23eb85966f0ae84ddb9393da1a8b8f8ca9"
                    },
                    "small": {
                        "https": "https://drscdn.500px.org/user_avatar/12796607/q%3D85_w%3D50_h%3D50/v2?webp=true&v=9&sig=50cc02b6e59999298fa3cbc2580b077fb4c51366fb2ac5f741148da163075ca7"
                    }
                },
                "lastname": "Vleer Photos",
                "cover_url": "https://drscdn.500px.org/user_cover/12796607/q%3D65_m%3D2048/v2?webp=true&v=24&sig=1b77dd3b7b6c7c200039d5ddcc8f1b1c571dcc33c2505cfd636db051174340ab",
                "userpic_https_url": "https://drscdn.500px.org/user_avatar/12796607/q%3D85_w%3D300_h%3D300/v2?webp=true&v=9&sig=3d8fba8ad33df23d038084af07e381e0711b0cf6cbbc6480af385e231104910e",
                "store_on": true,
                "userpic_url": "https://drscdn.500px.org/user_avatar/12796607/q%3D85_w%3D300_h%3D300/v2?webp=true&v=9&sig=3d8fba8ad33df23d038084af07e381e0711b0cf6cbbc6480af385e231104910e",
                "usertype": 0,
                "fullname": "Willo Vleer Photos",
                "city": "",
                "upgrade_status": 2,
                "id": 12796607,
                "username": "willovleer",
                "firstname": "Willo",
                "affection": 89565
            },
            "editors_choice_date": null,
            "voted": false,
            "taken_at": null,
            "hi_res_uploaded": 0,
            "rating": 98.4,
            "critiques_callout_dismissed": false,
            "purchased": false,
            "store_print": false,
            "for_sale_date": null,
            "votes_count": 210,
            "lens": null,
            "camera": null,
            "comments_count": 12,
            "watermark": true,
            "shutter_speed": null,
            "feature_date": "2018-05-09T12:29:45+00:00",
            "focal_length": null,
            "longitude": 25.0383588626,
            "licensing_status": 8,
            "height": 3123,
            "licensing_suggested": false,
            "store_width": 4685,
            "converted": false,
            "for_sale": false,
            "licensing_requested": false,
            "image_url": [
                "https://drscdn.500px.org/photo/257181335/m%3D900_k%3D1_a%3D1/v2?client_application_id=48421&webp=true&sig=502a626de1ce20989616221734622244980d48cfedb7403ff7a91fed78e1f45e"
            ],
            "sales_count": 0,
            "collections_count": 1,
            "nsfw": false,
            "user_id": 12796607,
            "store_height": 3123,
            "latitude": 35.3790961007,
            "comments": [],
            "times_viewed": 944,
            "crop_version": 0,
            "url": "/photo/257181335/just-lounging-by-willo-vleer-photos",
            "liked": false,
            "profile": true,
            "iso": null,
            "for_critique": false,
            "disliked": false,
            "location": null,
            "is_free_photo": false,
            "converted_bits": 0,
            "license_type": 0,
            "status": 1
        },
        {
            "store_license": false,
            "positive_votes_count": 194,
            "license_requests_enabled": true,
            "id": 257240433,
            "images": [
                {
                    "size": 4,
                    "format": "jpeg",
                    "https_url": "https://drscdn.500px.org/photo/257240433/m%3D900_k%3D1_a%3D1/v2?client_application_id=48421&webp=true&sig=44619561ff306bd88ebd46b9e13fd9eca91fc6b81d4e8b89536b9d785ddd9bc8",
                    "url": "https://drscdn.500px.org/photo/257240433/m%3D900_k%3D1_a%3D1/v2?client_application_id=48421&webp=true&sig=44619561ff306bd88ebd46b9e13fd9eca91fc6b81d4e8b89536b9d785ddd9bc8"
                }
            ],
            "description": "Rework of a past image into B&amp;W",
            "exclude_gads": false,
            "name": "Lion King V2",
            "highest_rating_date": "2018-05-10T01:02:36-04:00",
            "created_at": "2018-05-09T16:40:24-04:00",
            "store_download": false,
            "privacy": false,
            "favorites_count": 0,
            "category": 11,
            "width": 4336,
            "highest_rating": 98.3,
            "request_to_buy_enabled": true,
            "editors_choice": false,
            "image_format": "jpeg",
            "feature": "popular",
            "aperture": "5.6",
            "editored_by": {},
            "user": {
                "country": "United Kingdom",
                "avatars": {
                    "default": {
                        "https": "https://drscdn.500px.org/user_avatar/2214623/q%3D85_w%3D300_h%3D300/v2?webp=true&v=1&sig=1e85026efa2542eb1483132e7aff9803b87962e6768aaadb263cd1f7f5fe4557"
                    },
                    "tiny": {
                        "https": "https://drscdn.500px.org/user_avatar/2214623/q%3D85_w%3D30_h%3D30/v2?webp=true&v=1&sig=d3bfa4837c803540b65fd95973c124393dd3186db8fb278c6d53dc90974cb94e"
                    },
                    "large": {
                        "https": "https://drscdn.500px.org/user_avatar/2214623/q%3D85_w%3D100_h%3D100/v2?webp=true&v=1&sig=0126b142d9d5c966eb1eb343421e87628dc191475d6586d17e3f4395afc01968"
                    },
                    "small": {
                        "https": "https://drscdn.500px.org/user_avatar/2214623/q%3D85_w%3D50_h%3D50/v2?webp=true&v=1&sig=fe40fa3efcda31009d9767fa5bb711305a0f4c0960a9e1844aa3d445b58a7f45"
                    }
                },
                "lastname": "Liebenberg",
                "cover_url": "https://drscdn.500px.org/user_cover/2214623/q%3D65_m%3D2048/v2?webp=true&v=5&sig=1c2c930b1b16a7e2d816a97d5ee34d78951d3a31aa95d19288df557a132cd957",
                "userpic_https_url": "https://drscdn.500px.org/user_avatar/2214623/q%3D85_w%3D300_h%3D300/v2?webp=true&v=1&sig=1e85026efa2542eb1483132e7aff9803b87962e6768aaadb263cd1f7f5fe4557",
                "store_on": true,
                "userpic_url": "https://drscdn.500px.org/user_avatar/2214623/q%3D85_w%3D300_h%3D300/v2?webp=true&v=1&sig=1e85026efa2542eb1483132e7aff9803b87962e6768aaadb263cd1f7f5fe4557",
                "usertype": 0,
                "fullname": "Bradley Liebenberg",
                "city": "Bracknell",
                "upgrade_status": 2,
                "id": 2214623,
                "username": "BradleyLiebenberg",
                "firstname": "Bradley",
                "affection": 24595
            },
            "editors_choice_date": null,
            "voted": false,
            "taken_at": "2016-08-09T02:44:57-04:00",
            "hi_res_uploaded": 0,
            "rating": 98.3,
            "critiques_callout_dismissed": false,
            "purchased": false,
            "store_print": false,
            "for_sale_date": null,
            "votes_count": 194,
            "lens": null,
            "camera": "Canon PowerShot SX60 HS",
            "comments_count": 18,
            "watermark": false,
            "shutter_speed": "1/160",
            "feature_date": "2018-05-09T20:45:34+00:00",
            "focal_length": "139.970...",
            "longitude": 32.031578,
            "licensing_status": 0,
            "height": 2923,
            "licensing_suggested": false,
            "store_width": 4336,
            "converted": false,
            "for_sale": false,
            "licensing_requested": false,
            "image_url": [
                "https://drscdn.500px.org/photo/257240433/m%3D900_k%3D1_a%3D1/v2?client_application_id=48421&webp=true&sig=44619561ff306bd88ebd46b9e13fd9eca91fc6b81d4e8b89536b9d785ddd9bc8"
            ],
            "sales_count": 0,
            "collections_count": 2,
            "nsfw": false,
            "user_id": 2214623,
            "store_height": 2923,
            "latitude": -27.813699,
            "comments": [],
            "times_viewed": 625,
            "crop_version": 0,
            "url": "/photo/257240433/lion-king-v2-by-bradley-liebenberg",
            "liked": false,
            "profile": true,
            "iso": "250",
            "for_critique": false,
            "disliked": false,
            "location": null,
            "is_free_photo": false,
            "converted_bits": 0,
            "license_type": 0,
            "status": 1
        },
        {
            "store_license": false,
            "license_requests_enabled": false,
            "id": 257245417,
            "images": [
                {
                    "size": 4,
                    "format": "jpeg",
                    "https_url": "https://drscdn.500px.org/photo/257245417/m%3D900_k%3D1_a%3D1/v2?client_application_id=48421&webp=true&sig=990300cacd42080f81ed4aa0ab18076c6aacb1f6d75d6605f339f4a431212395",
                    "url": "https://drscdn.500px.org/photo/257245417/m%3D900_k%3D1_a%3D1/v2?client_application_id=48421&webp=true&sig=990300cacd42080f81ed4aa0ab18076c6aacb1f6d75d6605f339f4a431212395"
                }
            ],
            "description": null,
            "exclude_gads": false,
            "name": "Flirting on the second floor",
            "highest_rating_date": "2018-05-10T00:40:45-04:00",
            "created_at": "2018-05-09T17:40:17-04:00",
            "store_download": false,
            "privacy": false,
            "favorites_count": 0,
            "category": 21,
            "width": 2106,
            "highest_rating": 98.3,
            "request_to_buy_enabled": true,
            "editors_choice": false,
            "image_format": "jpeg",
            "feature": "popular",
            "aperture": "8",
            "editored_by": {},
            "user": {
                "country": "Brasil",
                "avatars": {
                    "default": {
                        "https": "https://drscdn.500px.org/user_avatar/19878705/q%3D85_w%3D300_h%3D300/v2?webp=true&v=3&sig=cbf7fee556cc32a7c2fb104fdc9ff70dc6533349467009a4fb9f26a4cc124550"
                    },
                    "tiny": {
                        "https": "https://drscdn.500px.org/user_avatar/19878705/q%3D85_w%3D30_h%3D30/v2?webp=true&v=3&sig=91491b8331f672b413fd2c2a719b2392b49d3276ce0d3848f8692f2a6b7a1657"
                    },
                    "large": {
                        "https": "https://drscdn.500px.org/user_avatar/19878705/q%3D85_w%3D100_h%3D100/v2?webp=true&v=3&sig=3d7aecd2af193c019a6cd5f7ede89b2cb4838f8a8b9747390a58f994d52829e9"
                    },
                    "small": {
                        "https": "https://drscdn.500px.org/user_avatar/19878705/q%3D85_w%3D50_h%3D50/v2?webp=true&v=3&sig=9c90a03bbb618800c112b4f70b8d898e00ab45674cb6d9aa4031b8e36dc4f742"
                    }
                },
                "lastname": "Bender",
                "cover_url": "https://drscdn.500px.org/user_cover/19878705/q%3D65_m%3D2048/v2?webp=true&v=40&sig=906c1e6a00fb4d182c21a2f727cc8a602864e0509f938c568540f65513499a98",
                "userpic_https_url": "https://drscdn.500px.org/user_avatar/19878705/q%3D85_w%3D300_h%3D300/v2?webp=true&v=3&sig=cbf7fee556cc32a7c2fb104fdc9ff70dc6533349467009a4fb9f26a4cc124550",
                "store_on": false,
                "userpic_url": "https://drscdn.500px.org/user_avatar/19878705/q%3D85_w%3D300_h%3D300/v2?webp=true&v=3&sig=cbf7fee556cc32a7c2fb104fdc9ff70dc6533349467009a4fb9f26a4cc124550",
                "usertype": 0,
                "fullname": "Claudio L. Bender",
                "city": "Novo Hamburgo",
                "upgrade_status": 0,
                "id": 19878705,
                "username": "clbender48",
                "firstname": "Claudio L.",
                "affection": 144223
            },
            "editors_choice_date": null,
            "voted": false,
            "taken_at": "2018-05-09T09:59:37-04:00",
            "hi_res_uploaded": 0,
            "rating": 98.3,
            "critiques_callout_dismissed": false,
            "purchased": false,
            "store_print": false,
            "for_sale_date": null,
            "votes_count": 199,
            "lens": null,
            "camera": "DSC-S930",
            "comments_count": 5,
            "watermark": false,
            "shutter_speed": "1/200",
            "feature_date": "2018-05-09T21:45:56+00:00",
            "focal_length": "19.2",
            "longitude": -51.2252986431,
            "licensing_status": 0,
            "height": 1771,
            "licensing_suggested": false,
            "positive_votes_count": 199,
            "converted": false,
            "for_sale": false,
            "licensing_requested": false,
            "image_url": [
                "https://drscdn.500px.org/photo/257245417/m%3D900_k%3D1_a%3D1/v2?client_application_id=48421&webp=true&sig=990300cacd42080f81ed4aa0ab18076c6aacb1f6d75d6605f339f4a431212395"
            ],
            "sales_count": 0,
            "collections_count": 2,
            "nsfw": false,
            "user_id": 19878705,
            "latitude": -30.0398012697,
            "comments": [],
            "times_viewed": 957,
            "crop_version": 0,
            "url": "/photo/257245417/flirting-on-the-second-floor-by-claudio-l-bender",
            "liked": false,
            "profile": true,
            "iso": "100",
            "for_critique": false,
            "disliked": false,
            "location": null,
            "is_free_photo": false,
            "converted_bits": 0,
            "license_type": 0,
            "status": 1
        }
    ]
}